{
  "body": {
    "artists": {
      "href": "https://api.spotify.com/v1/search?query=taylor&type=artist&offset=0&limit=20",
      "items": [
        {
          "external_urls": {
            "spotify": "https://open.spotify.com/artist/06HL4z0CvFAxyc27GXpf02"
          },
          "followers": {
            "href": null,
            "total": 17404708
          },
          "genres": [
            "dance pop",
            "pop",
            "post-teen pop"
          ],
          "href": "https://api.spotify.com/v1/artists/06HL4z0CvFAxyc27GXpf02",
          "id": "06HL4z0CvFAxyc27GXpf02",
          "images": [
            {
              "height": 640,
              "url": "https://i.scdn.co/image/bdaeccb035a8af87b7a70b62217ff5c633ba6c7c",
              "width": 640
            },
            {
              "height": 320,
              "url": "https://i.scdn.co/image/cec43c2fb746ea2a0c7546aa3408fe2f94887fe4",
              "width": 320
            },
            {
              "height": 160,
              "url": "https://i.scdn.co/image/33bc9128ad82f7d39847b6db6a49d5416502e7e7",
              "width": 160
            }
          ],
          "name": "Taylor Swift",
          "popularity": 90,
          "type": "artist",
          "uri": "spotify:artist:06HL4z0CvFAxyc27GXpf02"
        },
        {
          "external_urls": {
            "spotify": "https://open.spotify.com/artist/0vn7UBvSQECKJm2817Yf1P"
          },
          "followers": {
            "href": null,
            "total": 801751
          },
          "genres": [
            "adult standards",
            "folk",
            "folk rock",
            "mellow gold",
            "rock",
            "roots rock",
            "singer-songwriter",
            "soft rock"
          ],
          "href": "https://api.spotify.com/v1/artists/0vn7UBvSQECKJm2817Yf1P",
          "id": "0vn7UBvSQECKJm2817Yf1P",
          "images": [
            {
              "height": 1000,
              "url": "https://i.scdn.co/image/747d0d0f181eb1c4bce048d4f905622b14647e83",
              "width": 1000
            },
            {
              "height": 640,
              "url": "https://i.scdn.co/image/a2b61e4b56ac755a86898d6d2d3edcd967f5fca1",
              "width": 640
            },
            {
              "height": 200,
              "url": "https://i.scdn.co/image/a1d46914981b6059b9b41328d5def41a31f248d8",
              "width": 200
            },
            {
              "height": 64,
              "url": "https://i.scdn.co/image/61dea47e017e255583e745c7e3f388cf12297c93",
              "width": 64
            }
          ],
          "name": "James Taylor",
          "popularity": 71,
          "type": "artist",
          "uri": "spotify:artist:0vn7UBvSQECKJm2817Yf1P"
        },
        {
          "external_urls": {
            "spotify": "https://open.spotify.com/artist/4ULO7IGI3M2bo0Ap7B9h8a"
          },
          "followers": {
            "href": null,
            "total": 421064
          },
          "genres": [
            "alternative r&b",
            "deep pop r&b",
            "hip pop",
            "neo soul",
            "pop",
            "pop rap",
            "r&b",
            "rap",
            "urban contemporary"
          ],
          "href": "https://api.spotify.com/v1/artists/4ULO7IGI3M2bo0Ap7B9h8a",
          "id": "4ULO7IGI3M2bo0Ap7B9h8a",
          "images": [
            {
              "height": 640,
              "url": "https://i.scdn.co/image/22feeafd7d9975cb1348f7b4d8101a7a467c5392",
              "width": 640
            },
            {
              "height": 320,
              "url": "https://i.scdn.co/image/feb952dc7d53329012a30c080c157bb9d115d5ff",
              "width": 320
            },
            {
              "height": 160,
              "url": "https://i.scdn.co/image/51aecbae0818600abef6ff8c9141176ccb985833",
              "width": 160
            }
          ],
          "name": "Teyana Taylor",
          "popularity": 69,
          "type": "artist",
          "uri": "spotify:artist:4ULO7IGI3M2bo0Ap7B9h8a"
        },
        {
          "external_urls": {
            "spotify": "https://open.spotify.com/artist/6CqjoQyGZlnhnq5gAUz92c"
          },
          "followers": {
            "href": null,
            "total": 73172
          },
          "genres": [
            "chicago rap",
            "drill",
            "lgbtq+ hip hop",
            "underground hip hop"
          ],
          "href": "https://api.spotify.com/v1/artists/6CqjoQyGZlnhnq5gAUz92c",
          "id": "6CqjoQyGZlnhnq5gAUz92c",
          "images": [
            {
              "height": 640,
              "url": "https://i.scdn.co/image/bcc1e08429a95efaeea7f446e3d8e67a1bf0a1f3",
              "width": 640
            },
            {
              "height": 320,
              "url": "https://i.scdn.co/image/6f07b5980d808f93c2d8a1e16ed1d70e419cbe9a",
              "width": 320
            },
            {
              "height": 160,
              "url": "https://i.scdn.co/image/855717ab09c113144078e0687cb16c38d0016bf8",
              "width": 160
            }
          ],
          "name": "Taylor Bennett",
          "popularity": 60,
          "type": "artist",
          "uri": "spotify:artist:6CqjoQyGZlnhnq5gAUz92c"
        },
        {
          "external_urls": {
            "spotify": "https://open.spotify.com/artist/58nB2Z6IiDdTUTwHYw56xI"
          },
          "followers": {
            "href": null,
            "total": 61457
          },
          "genres": [
            "lift kit",
            "redneck"
          ],
          "href": "https://api.spotify.com/v1/artists/58nB2Z6IiDdTUTwHYw56xI",
          "id": "58nB2Z6IiDdTUTwHYw56xI",
          "images": [
            {
              "height": 640,
              "url": "https://i.scdn.co/image/f9fc5c38e92a1db1533f773da9726f98e526f29a",
              "width": 640
            },
            {
              "height": 320,
              "url": "https://i.scdn.co/image/a3c30e86a1660fef8854242cecdf9cf002350920",
              "width": 320
            },
            {
              "height": 160,
              "url": "https://i.scdn.co/image/d647bb290ed703f490897f8d9f760fb5eb82125e",
              "width": 160
            }
          ],
          "name": "Taylor Ray Holbrook",
          "popularity": 58,
          "type": "artist",
          "uri": "spotify:artist:58nB2Z6IiDdTUTwHYw56xI"
        },
        {
          "external_urls": {
            "spotify": "https://open.spotify.com/artist/480xKab3lUPhBBnCzlzqIu"
          },
          "followers": {
            "href": null,
            "total": 127184
          },
          "genres": [
            "bow pop",
            "classify",
            "otacore",
            "scorecore"
          ],
          "href": "https://api.spotify.com/v1/artists/480xKab3lUPhBBnCzlzqIu",
          "id": "480xKab3lUPhBBnCzlzqIu",
          "images": [
            {
              "height": 640,
              "url": "https://i.scdn.co/image/33d8769d1b92f690ba3906c0c9143bbaf1c5c763",
              "width": 640
            },
            {
              "height": 320,
              "url": "https://i.scdn.co/image/71abc9af652e2922e8cf57ba511fbead06acaa87",
              "width": 320
            },
            {
              "height": 160,
              "url": "https://i.scdn.co/image/7def102f505c2a5d7ebf3def01a4bb0401db3768",
              "width": 160
            }
          ],
          "name": "Taylor Davis",
          "popularity": 58,
          "type": "artist",
          "uri": "spotify:artist:480xKab3lUPhBBnCzlzqIu"
        },
        {
          "external_urls": {
            "spotify": "https://open.spotify.com/artist/1A0WloDoRE88uUwo3wensY"
          },
          "followers": {
            "href": null,
            "total": 4868
          },
          "genres": [
            "contemporary country"
          ],
          "href": "https://api.spotify.com/v1/artists/1A0WloDoRE88uUwo3wensY",
          "id": "1A0WloDoRE88uUwo3wensY",
          "images": [
            {
              "height": 640,
              "url": "https://i.scdn.co/image/e845fe1c653d9e4cdbe0cd333142fe589498326a",
              "width": 640
            },
            {
              "height": 320,
              "url": "https://i.scdn.co/image/ffa3d75252be8dcb1b081ab6b7e284af4b033092",
              "width": 320
            },
            {
              "height": 160,
              "url": "https://i.scdn.co/image/16e919479aab065c6346317baf8ac0528e140624",
              "width": 160
            }
          ],
          "name": "Taylor Acorn",
          "popularity": 53,
          "type": "artist",
          "uri": "spotify:artist:1A0WloDoRE88uUwo3wensY"
        },
        {
          "external_urls": {
            "spotify": "https://open.spotify.com/artist/32lVGr0fSRGT6okLKHiP68"
          },
          "followers": {
            "href": null,
            "total": 154732
          },
          "genres": [
            "dance pop",
            "freestyle",
            "hi-nrg",
            "mellow gold",
            "new wave pop",
            "soft rock"
          ],
          "href": "https://api.spotify.com/v1/artists/32lVGr0fSRGT6okLKHiP68",
          "id": "32lVGr0fSRGT6okLKHiP68",
          "images": [
            {
              "height": 640,
              "url": "https://i.scdn.co/image/83e83a32de7c8844fd7b65c42e43aba7ad12ff7c",
              "width": 640
            },
            {
              "height": 320,
              "url": "https://i.scdn.co/image/d673a6f168a69489ebc48206b7f4b3b0c4f78020",
              "width": 320
            },
            {
              "height": 160,
              "url": "https://i.scdn.co/image/80956d6068d6e07359cbb2792965018bbbee93c3",
              "width": 160
            }
          ],
          "name": "Taylor Dayne",
          "popularity": 59,
          "type": "artist",
          "uri": "spotify:artist:32lVGr0fSRGT6okLKHiP68"
        },
        {
          "external_urls": {
            "spotify": "https://open.spotify.com/artist/2WxjxdeF7GGdcCK276qViY"
          },
          "followers": {
            "href": null,
            "total": 17577
          },
          "genres": [],
          "href": "https://api.spotify.com/v1/artists/2WxjxdeF7GGdcCK276qViY",
          "id": "2WxjxdeF7GGdcCK276qViY",
          "images": [
            {
              "height": 640,
              "url": "https://i.scdn.co/image/96ba147ab1133a10d1a38a737d169254eb0463e4",
              "width": 640
            },
            {
              "height": 320,
              "url": "https://i.scdn.co/image/8bc495aa682e6e7fc78d5158e80907f9ad8cfbf2",
              "width": 320
            },
            {
              "height": 160,
              "url": "https://i.scdn.co/image/f6d4a92e235426cccbbc4b6b68e611561eaf2b06",
              "width": 160
            }
          ],
          "name": "Natalie Taylor",
          "popularity": 56,
          "type": "artist",
          "uri": "spotify:artist:2WxjxdeF7GGdcCK276qViY"
        },
        {
          "external_urls": {
            "spotify": "https://open.spotify.com/artist/0j0HBDnIuT6rsn840ec18A"
          },
          "followers": {
            "href": null,
            "total": 6003
          },
          "genres": [],
          "href": "https://api.spotify.com/v1/artists/0j0HBDnIuT6rsn840ec18A",
          "id": "0j0HBDnIuT6rsn840ec18A",
          "images": [
            {
              "height": 640,
              "url": "https://i.scdn.co/image/294a6793bd541ae59bad7f05bf78086a01e5e7c6",
              "width": 640
            },
            {
              "height": 320,
              "url": "https://i.scdn.co/image/a6f2dc99f0654ddef60d24c7e35d2c3065ce845d",
              "width": 320
            },
            {
              "height": 160,
              "url": "https://i.scdn.co/image/d3dd9e4e6d4a473e841eacc42ccc3fac04fe45d9",
              "width": 160
            }
          ],
          "name": "Lafa Taylor",
          "popularity": 53,
          "type": "artist",
          "uri": "spotify:artist:0j0HBDnIuT6rsn840ec18A"
        },
        {
          "external_urls": {
            "spotify": "https://open.spotify.com/artist/30ejUciK31BCg0IVCbt1dW"
          },
          "followers": {
            "href": null,
            "total": 3905
          },
          "genres": [],
          "href": "https://api.spotify.com/v1/artists/30ejUciK31BCg0IVCbt1dW",
          "id": "30ejUciK31BCg0IVCbt1dW",
          "images": [
            {
              "height": 640,
              "url": "https://i.scdn.co/image/16186a35e398110123dacb6c271c5f691d0e69b8",
              "width": 640
            },
            {
              "height": 320,
              "url": "https://i.scdn.co/image/d3adc64461a4467051e0e5a4ad49e132d60d8474",
              "width": 320
            },
            {
              "height": 160,
              "url": "https://i.scdn.co/image/7ad17da319267ee68fb529f28fb15343801ab87c",
              "width": 160
            }
          ],
          "name": "Mike Taylor",
          "popularity": 58,
          "type": "artist",
          "uri": "spotify:artist:30ejUciK31BCg0IVCbt1dW"
        },
        {
          "external_urls": {
            "spotify": "https://open.spotify.com/artist/4OGuNAnRFWZOgOA2d51taz"
          },
          "followers": {
            "href": null,
            "total": 87395
          },
          "genres": [
            "classic soul",
            "funk",
            "memphis soul",
            "motown",
            "quiet storm",
            "soul",
            "soul blues",
            "southern soul"
          ],
          "href": "https://api.spotify.com/v1/artists/4OGuNAnRFWZOgOA2d51taz",
          "id": "4OGuNAnRFWZOgOA2d51taz",
          "images": [
            {
              "height": 640,
              "url": "https://i.scdn.co/image/78cb5bffe86fbc47476566ca0f74afab722a351b",
              "width": 640
            },
            {
              "height": 320,
              "url": "https://i.scdn.co/image/38bc4cba7313348f54ec064737be096a4a96017d",
              "width": 320
            },
            {
              "height": 160,
              "url": "https://i.scdn.co/image/7ef8f5f4374dd3665b1ed126d74058bb5801a195",
              "width": 160
            }
          ],
          "name": "Johnnie Taylor",
          "popularity": 49,
          "type": "artist",
          "uri": "spotify:artist:4OGuNAnRFWZOgOA2d51taz"
        },
        {
          "external_urls": {
            "spotify": "https://open.spotify.com/artist/1f0vGTFXE64SLuypBV8zB0"
          },
          "followers": {
            "href": null,
            "total": 390
          },
          "genres": [],
          "href": "https://api.spotify.com/v1/artists/1f0vGTFXE64SLuypBV8zB0",
          "id": "1f0vGTFXE64SLuypBV8zB0",
          "images": [],
          "name": "Taylor Louderman",
          "popularity": 50,
          "type": "artist",
          "uri": "spotify:artist:1f0vGTFXE64SLuypBV8zB0"
        },
        {
          "external_urls": {
            "spotify": "https://open.spotify.com/artist/46JtIzqxtxDz0ID3fLoqpQ"
          },
          "followers": {
            "href": null,
            "total": 53
          },
          "genres": [],
          "href": "https://api.spotify.com/v1/artists/46JtIzqxtxDz0ID3fLoqpQ",
          "id": "46JtIzqxtxDz0ID3fLoqpQ",
          "images": [
            {
              "height": 640,
              "url": "https://i.scdn.co/image/ef6b6889f069be4fd3589325eaca3af0477abeb2",
              "width": 640
            },
            {
              "height": 300,
              "url": "https://i.scdn.co/image/782885b5e7a8253b4ebfdeb74fdac1bfb71a50cd",
              "width": 300
            },
            {
              "height": 64,
              "url": "https://i.scdn.co/image/cf9a75ab690112c75cfd0dcd7b24e248b745dde5",
              "width": 64
            }
          ],
          "name": "Mike Taylor",
          "popularity": 49,
          "type": "artist",
          "uri": "spotify:artist:46JtIzqxtxDz0ID3fLoqpQ"
        },
        {
          "external_urls": {
            "spotify": "https://open.spotify.com/artist/6D5xkX8ecb4bGccXqtDI63"
          },
          "followers": {
            "href": null,
            "total": 3547
          },
          "genres": [
            "acoustic pop"
          ],
          "href": "https://api.spotify.com/v1/artists/6D5xkX8ecb4bGccXqtDI63",
          "id": "6D5xkX8ecb4bGccXqtDI63",
          "images": [
            {
              "height": 640,
              "url": "https://i.scdn.co/image/5ac407dda236661871099613e4cbd0368f2d17e5",
              "width": 640
            },
            {
              "height": 320,
              "url": "https://i.scdn.co/image/2dcd058329bbd1ac1d29884af395e17cad850fb7",
              "width": 320
            },
            {
              "height": 160,
              "url": "https://i.scdn.co/image/ebc9ba29f158ddc6334cde655515ffbb0dacddb6",
              "width": 160
            }
          ],
          "name": "Angel Taylor",
          "popularity": 53,
          "type": "artist",
          "uri": "spotify:artist:6D5xkX8ecb4bGccXqtDI63"
        },
        {
          "external_urls": {
            "spotify": "https://open.spotify.com/artist/0nhDd1RWjZ6SDV1Vg1Ku2Q"
          },
          "followers": {
            "href": null,
            "total": 79826
          },
          "genres": [
            "alternative metal"
          ],
          "href": "https://api.spotify.com/v1/artists/0nhDd1RWjZ6SDV1Vg1Ku2Q",
          "id": "0nhDd1RWjZ6SDV1Vg1Ku2Q",
          "images": [
            {
              "height": 640,
              "url": "https://i.scdn.co/image/8f2da714df9ecc57c549e931570a79f7b8816bde",
              "width": 640
            },
            {
              "height": 320,
              "url": "https://i.scdn.co/image/d1f32ed194f3baba98185f8ec038ea107ae17130",
              "width": 320
            },
            {
              "height": 160,
              "url": "https://i.scdn.co/image/ebf83ae29d64ed698623179b499fb0738caec3bd",
              "width": 160
            }
          ],
          "name": "Corey Taylor",
          "popularity": 52,
          "type": "artist",
          "uri": "spotify:artist:0nhDd1RWjZ6SDV1Vg1Ku2Q"
        },
        {
          "external_urls": {
            "spotify": "https://open.spotify.com/artist/5enXh7VYtH8x63M7coq9tJ"
          },
          "followers": {
            "href": null,
            "total": 1675
          },
          "genres": [],
          "href": "https://api.spotify.com/v1/artists/5enXh7VYtH8x63M7coq9tJ",
          "id": "5enXh7VYtH8x63M7coq9tJ",
          "images": [
            {
              "height": 640,
              "url": "https://i.scdn.co/image/16cb3ff6fe7b1927f9da41c8c3a9ed30f555a79e",
              "width": 640
            },
            {
              "height": 320,
              "url": "https://i.scdn.co/image/496f43bdc6bfcd41c83c8260fd8e57e49bf518ca",
              "width": 320
            },
            {
              "height": 160,
              "url": "https://i.scdn.co/image/7b99dc7577840974af5a86a5c429d3d3890dda28",
              "width": 160
            }
          ],
          "name": "Taylor Hill",
          "popularity": 45,
          "type": "artist",
          "uri": "spotify:artist:5enXh7VYtH8x63M7coq9tJ"
        },
        {
          "external_urls": {
            "spotify": "https://open.spotify.com/artist/4DX2G1URzfEiRg2wBfv4ub"
          },
          "followers": {
            "href": null,
            "total": 83563
          },
          "genres": [
            "indie anthem-folk"
          ],
          "href": "https://api.spotify.com/v1/artists/4DX2G1URzfEiRg2wBfv4ub",
          "id": "4DX2G1URzfEiRg2wBfv4ub",
          "images": [
            {
              "height": 640,
              "url": "https://i.scdn.co/image/f97776de59456c48ed8e4a94a3522723f7d3bc19",
              "width": 640
            },
            {
              "height": 320,
              "url": "https://i.scdn.co/image/c9c2fbd02edef4598e7913e5b1935e1e30753c5d",
              "width": 320
            },
            {
              "height": 160,
              "url": "https://i.scdn.co/image/4bf29ca9bea2243f47f50fea8315fb9a3b40e8d8",
              "width": 160
            }
          ],
          "name": "Hudson Taylor",
          "popularity": 55,
          "type": "artist",
          "uri": "spotify:artist:4DX2G1URzfEiRg2wBfv4ub"
        },
        {
          "external_urls": {
            "spotify": "https://open.spotify.com/artist/0nuq0P5rPEpF6oFM4PTia5"
          },
          "followers": {
            "href": null,
            "total": 3388
          },
          "genres": [],
          "href": "https://api.spotify.com/v1/artists/0nuq0P5rPEpF6oFM4PTia5",
          "id": "0nuq0P5rPEpF6oFM4PTia5",
          "images": [
            {
              "height": 640,
              "url": "https://i.scdn.co/image/2eb2f4ace08ebab338872530e460ce7b48dac1a0",
              "width": 640
            },
            {
              "height": 320,
              "url": "https://i.scdn.co/image/8f8c44d752e70ce734ba130adf53e0b3a294319c",
              "width": 320
            },
            {
              "height": 160,
              "url": "https://i.scdn.co/image/37906f2da6601dac3ef37157f83156f160d10877",
              "width": 160
            }
          ],
          "name": "George Taylor",
          "popularity": 47,
          "type": "artist",
          "uri": "spotify:artist:0nuq0P5rPEpF6oFM4PTia5"
        },
        {
          "external_urls": {
            "spotify": "https://open.spotify.com/artist/2CCqizWr7RQhtABnxW9epA"
          },
          "followers": {
            "href": null,
            "total": 84724
          },
          "genres": [
            "trap queen"
          ],
          "href": "https://api.spotify.com/v1/artists/2CCqizWr7RQhtABnxW9epA",
          "id": "2CCqizWr7RQhtABnxW9epA",
          "images": [
            {
              "height": 640,
              "url": "https://i.scdn.co/image/0c1597708b3f61e45b8e1445ae0fe848858d92dd",
              "width": 640
            },
            {
              "height": 320,
              "url": "https://i.scdn.co/image/16ddb76b4b4a564fc8fde49e6dae7b619c816c54",
              "width": 320
            },
            {
              "height": 160,
              "url": "https://i.scdn.co/image/55a5a28e4f55162c355265c1e4ee07e3aa02b4b6",
              "width": 160
            }
          ],
          "name": "Taylor Girlz",
          "popularity": 44,
          "type": "artist",
          "uri": "spotify:artist:2CCqizWr7RQhtABnxW9epA"
        }
      ],
      "limit": 20,
      "next": "https://api.spotify.com/v1/search?query=taylor&type=artist&offset=20&limit=20",
      "offset": 0,
      "previous": null,
      "total": 3934
    }
  },
  "headers": {
    "content-type": "application/json; charset=utf-8",
    "cache-control": "public, max-age=7200",
    "access-control-allow-origin": "*",
    "access-control-allow-headers": "Accept, Authorization, Origin, Content-Type, Retry-After",
    "access-control-allow-methods": "GET, POST, OPTIONS, PUT, DELETE, PATCH",
    "access-control-allow-credentials": "true",
    "access-control-max-age": "604800",
    "content-encoding": "gzip",
    "date": "Thu, 31 Jan 2019 16:45:59 GMT",
    "via": "1.1 google",
    "alt-svc": "clear",
    "connection": "close",
    "transfer-encoding": "chunked"
  },
  "statusCode": 200
}